[
    {
        "name":"Boca chica",
        "latitude":"18.4467254",
        "longitude":"-69.6098658"
    }
    ,
    {
        "name": "Parque los tres ojos",
        "latitude": "18.480443",
        "longitude": "-69.843757"
    },
    {
        "name": "Playa Rincon",
        "latitude": "19.2884",
        "longitude": "-69.2483"
    },
    {
        "name": "Playa Guiibia",
        "latitude": "18.458963100000000000",
        "longitude": "-69,905735899999970000"
    },
    {
        "name": "La caobita",
        "latitude": "18.369",
        "longitude": "-70.5696"
    },
    {
        "name": "Palmar de Ocoa",
        "latitude": "18.3",
        "longitude": "-70.58333"
    },
    {
        "name": "Barahona paraiso",
        "latitude": "18",
        "longitude": "-71.16667"
    },
    {
        "name": "Punta Iglesia",
        "latitude": "18.2",
        "longitude": "-71.0833"
    },
    {
        "name": "Boca Chica",
        "latitude": "18.453888900000000000",
        "longitude": "-69,606388900000010000"
    },
    {
        "name": "Boca chica la caleta",
        "latitude": "18.45",
        "longitude": "-69.6833"
    },
    {
        "name": "Rio Masipedro",
        "latitude": "18.9599",
        "longitude": "-70.4124"
    },
    {
        "name": "Rio Yuna",
        "latitude": "19.1975",
        "longitude": "-69.6277"
    },
    {
        "name": "Indenpendencia Las Barias",
        "latitude": "18.5518",
        "longitude": "-71.7387"
    },
    {
        "name": "Altagracia Macao",
        "latitude": "18.7674",
        "longitude": "-68.5484"
    },
    {
        "name": "Altagracia Uvero Alto",
        "latitude": "18.8109",
        "longitude": "-68.5795"
    },
    {
        "name": "Bayahibe",
        "latitude": "18.3667",
        "longitude": "-68.8333"
    },
    {
        "name": "Playa de Long Beach",
        "latitude": "19.787",
        "longitude": "-70.63333"
    },
    {
        "name": "La Granja",
        "latitude": "19.888",
        "longitude": "-71.6432"
    },
    {
        "name": "Playa Cabo Rojo",
        "latitude": "17.545435",
        "longitude": "-71.392662"
    },
    {
        "name": "Sosua",
        "latitude": "19.45577",
        "longitude": "-70.30414"
    },
    {
        "name": "Poza de Bojolo",
        "latitude": "19.20518",
        "longitude": "-69.48553"
    },
    {
        "name": "Arroyo Juana nunes",
        "latitude": "19.36666667",
        "longitude": "-70.4166667"
    },
    {
        "name": "Playa Rincon",
        "latitude": "19.2884",
        "longitude": "-69.2483"
    },
    {
        "name": "Río Haina",
        "latitude": "18.4131",
        "longitude": "-70.0174"
    },
    {
        "name": "Bahia de Najayo",
        "latitude": "18.2993",
        "longitude": "-70.1042"
    },
    {
        "name": "Juan Dolio",
        "latitude": "18.4279",
        "longitude": "-69.4213"
    },
    {
        "name": "Villas del Mar",
        "latitude": "18.427",
        "longitude": "-69.3928"
    },
    {
        "name": "Rio Yaque del Norte",
        "latitude": "19.8401",
        "longitude": "-71.687"
    },
    {
        "name": "Jardín Botánico Nacional",
        "latitude": "18.492817",
        "longitude": "-69.953856"
    },
    {
        "name": "Manresa",
        "latitude": "18.424896",
        "longitude": "-70.00396"
    },
    {
        "name": "Manresa Costa Verde",
        "latitude": "18.4167",
        "longitude": "-70.00"
    },
    {
        "name": "Rio Ozama",
        "latitude": "18.4667",
        "longitude": "-69.8833"
    },
    {
        "name": "Rio Izabela",
        "latitude": "19.883333",
        "longitude": "-71.083333"
    },
    {
        "name": "Rio haina Occidental",
        "latitude": "18.25",
        "longitude": "-70.00"
    },
    {
        "name": "Cabo Engano",
        "latitude": "18.57",
        "longitude": "-71.17"
    }
    ,
    {
        "name": "dajabon river",
        "latitude": "19.6391665",
        "longitude": "-71.726213"
    },
    {
        "name": "yaque del norte river",
        "latitude": "19.1116368",
        "longitude": "-70.649997"
    },
    {
        "name": "mao river",
        "latitude": "19.288027",
        "longitude": "-71.2804168"
    },
    {
        "name": "yuna river",
        "latitude": "19.1062",
        "longitude": "-69.6386"
    },
    {
        "name": "camu river",
        "latitude": "19.2325248",
        "longitude": "-70.53340539999999"
    },
    {
        "name": "yuma river",
        "latitude": "18.666283",
        "longitude": "-68.74835639999999"
    },
    {
        "name": "chavon river",
        "latitude": "18.4119568",
        "longitude": "-68.8911894"
    },
    {
        "name": "soco river",
        "latitude": "18.8708642",
        "longitude": "-68.92074459999999"
    },
    {
        "name": "ozama river",
        "latitude": "18.4907948",
        "longitude": "-69.88095939999999"
    },
    {
        "name": "isabela river",
        "latitude": "18.5719127",
        "longitude": "-70.03297359999999"
    },
    {
        "name": "yabacao river",
        "latitude": "18.7089634",
        "longitude": "-69.5799967"
    },
    {
        "name": "haina river",
        "latitude": "18.4253926",
        "longitude": "-70.01732249999999"
    },
    {
        "name": "ocoa river",
        "latitude": "18.3910909",
        "longitude": "-70.4724502"
    },
    {
        "name": "nizao river",
        "latitude": "18.5096819",
        "longitude": "-70.3504784"
    },
    {
        "name": "yaque del sur river",
        "latitude": "18.536878",
        "longitude": "-70.9798014"
    },
    {
        "name": "limon river",
        "latitude": "18.6660978",
        "longitude": "-69.7452189"
    },
    {
        "name": "san juan river",
        "latitude": "19.643611",
        "longitude": "-70.078056"
    },
    {
        "name": "rievere  soliette",
        "latitude": "18.4833",
        "longitude": "-71.83329999999999"
    },
    {
        "name": "pedernales river",
        "latitude": "18.0459412",
        "longitude": "-71.75091399999999"
    },
    {
        "name": "artibonite river",
        "latitude": "18.735693",
        "longitude": "-70.162651"
    },
    {
        "name": "macasia river",
        "latitude": "18.8810043",
        "longitude": "-71.5301327"
    },
    {
        "name": "libon river",
        "latitude": "19.2310882",
        "longitude": "-71.6370288"
    },
    {
        "name":"Del Este National Park",
        "latitude":"18.1530876",
        "longitude":"-68.6797264"
    },{
"name":"El Choco National Park",
"latitude":"19.7134951",
"longitude":"-70.4431911"
},
{
"name":"Jaragua National Park",
"latitude":"17.4762074",
"longitude":"-71.6421194"
},
{
"name":"Parque Nacional Jose Armando Bermúdez",
"latitude":"19.1756542",
"longitude":"-71.0497768"
},
{
"name":"Jose del Carmen Ramirez National Park",
"latitude":"19.0031468",
"longitude":"-71.1448516"
},
{
"name":"Los Haitises National Park",
"latitude":"19.0178473",
"longitude":"-69.6214562"
},{
"name":"Monte Cristi National Park",
"latitude":"19.782311",
"longitude":"-71.7029308"
},
{
"name":"Isabel De Torres National Park",
"latitude":"19.7401776",
"longitude":"-70.6811613"
},{
"name":"Isla Cabritos National Park",
"latitude":"18.483148",
"longitude":"-71.6969985"
},
{
"name":"Sierra De Baoruco National Park",
"latitude":"18.3323888",
"longitude":"-71.5011731"
},
{
"name":"Cueva de las Maravillas",
"latitude":"18.4489497",
"longitude":"-69.1157064"
},{
"name":"lake",
"latitude":"18.6598056",
"longitude":"-68.4019329"
},

{
"name":"Lake",
"latitude":"18.4362276",
"longitude":"-68.8588103"
},

{
"name":"Lake",
"latitude":"18.3468187",
"longitude":"-68.8232273"
},

{
"name":"Laguna",
"latitude":"18.4480023",
"longitude":"-69.330217"
},

{
"name":"Laguna",
"latitude":"18.6158938",
"longitude":"-69.8087389"
},

{
"name":"Laguna",
"latitude":"19.6545018",
"longitude":"-71.084504"
},

{
"name":"laguna",
"latitude":"19.836537",
"longitude":"-71.3760357"
},

{
"name":"Laguna",
"latitude":"19.3847655",
"longitude":"-69.8502013"
}



]